…
4. (2 points) Change the names of the variables to lower case and change the class of the variable `sex` to a factor.

```r
elephants <- clean_names(elephants)
elephants$sex <- as.factor(elephants$sex)
elephants
```

```
## # A tibble: 288 × 3
##      age height sex  
##    <dbl>  <dbl> <fct>
##  1   1.4   120  M    
##  2  17.5   227  M    
##  3  12.8   235  M    
##  4  11.2   210  M    
##  5  12.7   220  M    
##  6  12.7   189  M    
##  7  12.2   225  M    
##  8  12.2   204  M    
##  9  28.2   266. M    
## 10  11.7   233  M    
## # … with 278 more rows
```
…
12. (4 points) Based on your interest, do one exploratory analysis on the `gabon` data of your choice. This analysis needs to include a minimum of two functions in `dplyr.`

**For this part, I tried to confirm if the richness of tree species varies based on the site distance to villages, and the relative abundance of apes and rodent. After extracting the average richness, average ape relative abundance, and average rodent relative abundance at distance over 15km and below 5km from villages. We observed that ,comparing with distance under 5km, the mean tree species richness is slightly higher with distance over 15km, and the corresponding relative abundance of apes is higher, with the relative abundance of rodent being lower.**

**In the article, we learned that apes as medium/large seed dispensers and rodent as seed predators, the relative abundance of each species also affect the abundance of tree species. It could be explained in the article as "The reduction of dispersal services and increase in seed predation could impede plant recruitment of primate-dispersed species, opening space for different plant species (Poulsen et al. 2002; Brodie et al. 2009)". Here with the extracted data below, it helped me to explore this phenomenon further.**

```r
vegetation <- select(vertebrate,"Distance","Veg_Rich","RA_Apes","RA_Rodent")
arrange(vegetation,desc(Distance))
```

```
## # A tibble: 24 × 4
##    Distance Veg_Rich RA_Apes RA_Rodent
##       <dbl>    <dbl>   <dbl>     <dbl>
##  1     26.8     16.8    4.91      1.29
##  2     24.1     14.8    3.78      3.1 
##  3     20.8     12.4   12.9       3.66
##  4     19.8     13.2    6.17      1.26
##  5     18.8     11.8    0.51      2.09
##  6     18.3     16.9    4.49      1.06
##  7     17.5     16.5    2.48      1.83
##  8     17.3     15.8    0         6.04
##  9     16.0     17.1    0         2.52
## 10     15.0     15      1.28      3.97
## # … with 14 more rows
```
…
