…
2. Use `janitor` to rename the columns and make them easier to use. As part of this cleaning step, change `country`, `isscaap_group_number`, `asfis_species_number`, and `fao_major_fishing_area` to data class factor. 

```r
fisheries <- clean_names(fisheries)
fisheries
```

```
## # A tibble: 17,692 × 71
##    country common_name        isscaap_group_n… isscaap_taxonom… asfis_species_n…
##    <chr>   <chr>                         <dbl> <chr>            <chr>           
##  1 Albania Angelsharks, sand…               38 Sharks, rays, c… 10903XXXXX      
##  2 Albania Atlantic bonito                  36 Tunas, bonitos,… 1750100101      
##  3 Albania Barracudas nei                   37 Miscellaneous p… 17710001XX      
##  4 Albania Blue and red shri…               45 Shrimps, prawns  2280203101      
##  5 Albania Blue whiting(=Pou…               32 Cods, hakes, ha… 1480403301      
##  6 Albania Bluefish                         37 Miscellaneous p… 1702021301      
##  7 Albania Bogue                            33 Miscellaneous c… 1703926101      
##  8 Albania Caramote prawn                   45 Shrimps, prawns  2280100117      
##  9 Albania Catsharks, nurseh…               38 Sharks, rays, c… 10801003XX      
## 10 Albania Common cuttlefish                57 Squids, cuttlef… 3210200202      
## # … with 17,682 more rows, and 66 more variables: asfis_species_name <chr>,
## #   fao_major_fishing_area <dbl>, measure <chr>, x1950 <chr>, x1951 <chr>,
## #   x1952 <chr>, x1953 <chr>, x1954 <chr>, x1955 <chr>, x1956 <chr>,
## #   x1957 <chr>, x1958 <chr>, x1959 <chr>, x1960 <chr>, x1961 <chr>,
## #   x1962 <chr>, x1963 <chr>, x1964 <chr>, x1965 <chr>, x1966 <chr>,
## #   x1967 <chr>, x1968 <chr>, x1969 <chr>, x1970 <chr>, x1971 <chr>,
## #   x1972 <chr>, x1973 <chr>, x1974 <chr>, x1975 <chr>, x1976 <chr>, …
```
…
4. Refocus the data only to include country, isscaap_taxonomic_group, asfis_species_name, asfis_species_number, year, catch.

```r
select(fisheries_tidy,-'common_name',-'isscaap_group_number',-'fao_major_fishing_area',-'measure')
```

```
## # A tibble: 376,771 × 6
##    country isscaap_taxonomic_group asfis_species_n… asfis_species_n…  year catch
##    <fct>   <chr>                   <fct>            <chr>            <dbl> <dbl>
##  1 Albania Sharks, rays, chimaeras 10903XXXXX       Squatinidae       1995    NA
##  2 Albania Sharks, rays, chimaeras 10903XXXXX       Squatinidae       1996    53
##  3 Albania Sharks, rays, chimaeras 10903XXXXX       Squatinidae       1997    20
##  4 Albania Sharks, rays, chimaeras 10903XXXXX       Squatinidae       1998    31
##  5 Albania Sharks, rays, chimaeras 10903XXXXX       Squatinidae       1999    30
##  6 Albania Sharks, rays, chimaeras 10903XXXXX       Squatinidae       2000    30
##  7 Albania Sharks, rays, chimaeras 10903XXXXX       Squatinidae       2001    16
##  8 Albania Sharks, rays, chimaeras 10903XXXXX       Squatinidae       2002    79
##  9 Albania Sharks, rays, chimaeras 10903XXXXX       Squatinidae       2003     1
## 10 Albania Sharks, rays, chimaeras 10903XXXXX       Squatinidae       2004     4
## # … with 376,761 more rows
```
…
6. Which country had the largest overall catch in the year 2000?
China had the largest overall catch in year 2000.

```r
fisheries_tidy %>%
  select('country','year','catch')%>%
  filter(year==2000)%>%
  arrange(desc(catch))
```

```
## # A tibble: 8,793 × 3
##    country                   year catch
##    <fct>                    <dbl> <dbl>
##  1 China                     2000  9068
##  2 Peru                      2000  5717
##  3 Russian Federation        2000  5065
##  4 Viet Nam                  2000  4945
##  5 Chile                     2000  4299
##  6 China                     2000  3288
##  7 China                     2000  2782
##  8 United States of America  2000  2438
##  9 China                     2000  1234
## 10 Philippines               2000   999
## # … with 8,783 more rows
```

7. Which country caught the most sardines (_Sardina pilchardus_) between the years 1990-2000?
Morocco caught the most sardines between 1990 to 2000.

```r
fisheries_tidy %>%
  select(country, asfis_species_name, year,catch)%>%
  filter(asfis_species_name=='Sardina pilchardus')%>%
  filter(between(year,1990,2000))%>%
  group_by(country)%>%
  summarise(most_sardines=sum(catch,na.rm=T))
```

```
## # A tibble: 37 × 2
##    country  most_sardines
##    <fct>            <dbl>
##  1 Albania            233
##  2 Algeria            333
##  3 Belize              15
##  4 Bulgaria            55
##  5 China                8
##  6 Croatia            220
##  7 Cyprus              17
##  8 Denmark            477
##  9 Estonia             43
## 10 France             966
## # … with 27 more rows
```
…
```r
specieshighest%>%
  arrange(desc(highest_catch))
```

```
## # A tibble: 1,472 × 2
##    asfis_species_name    highest_catch
##    <chr>                         <dbl>
##  1 Osteichthyes                 107808
##  2 Theragra chalcogramma         41075
##  3 Engraulis ringens             35523
##  4 Katsuwonus pelamis            32153
##  5 Trichiurus lepturus           30400
##  6 Clupea harengus               28527
##  7 Thunnus albacares             20119
##  8 Scomber japonicus             14723
##  9 Gadus morhua                  13253
## 10 Thunnus alalunga              12019
## # … with 1,462 more rows
```
…
```r
highestcatch_all <- fisheries_tidy %>%
  select(asfis_species_name, year,catch)%>%
  group_by(asfis_species_name)%>%
  summarise(highesttotal=sum(catch,na.rm=T))
```

```r
highestcatch_all%>%
  arrange(desc(highesttotal))
```

```
## # A tibble: 1,546 × 2
##    asfis_species_name      highesttotal
##    <chr>                          <dbl>
##  1 Osteichthyes                  863949
##  2 Engraulis ringens             540739
##  3 Theragra chalcogramma         473722
##  4 Clupea harengus               264304
##  5 Gadus morhua                  217930
##  6 Katsuwonus pelamis            194923
##  7 Sardinops sagax               176094
##  8 Scomber japonicus             175444
##  9 Trachurus murphyi             152034
## 10 Sardinops melanostictus       144774
## # … with 1,536 more rows
```
…
