…
2. Notice that we have some neutral superheros! Who are they?

```r
neutralhero <- filter(superhero_info,Alignment=='neutral')
neutralhero
```

```
## # A tibble: 24 × 10
##    Name    Gender `Eye color` Race    `Hair color` Height Publisher `Skin color`
##    <chr>   <chr>  <chr>       <chr>   <chr>         <dbl> <chr>     <chr>       
##  1 Bizarro Male   black       Bizarro Black           191 DC Comics white       
##  2 Black … Male   <NA>        God / … <NA>             NA DC Comics <NA>        
##  3 Captai… Male   brown       Human   Brown            NA DC Comics <NA>        
##  4 Copycat Female red         Mutant  White           183 Marvel C… blue        
##  5 Deadpo… Male   brown       Mutant  No Hair         188 Marvel C… <NA>        
##  6 Deaths… Male   blue        Human   White           193 DC Comics <NA>        
##  7 Etrigan Male   red         Demon   No Hair         193 DC Comics yellow      
##  8 Galact… Male   black       Cosmic… Black           876 Marvel C… <NA>        
##  9 Gladia… Male   blue        Stront… Blue            198 Marvel C… purple      
## 10 Indigo  Female <NA>        Alien   Purple           NA DC Comics <NA>        
## # … with 14 more rows, and 2 more variables: Alignment <chr>, Weight <dbl>
```

```r
select(neutralhero,'Name')
```

```
## # A tibble: 24 × 1
##    Name        
##    <chr>       
##  1 Bizarro     
##  2 Black Flash 
##  3 Captain Cold
##  4 Copycat     
##  5 Deadpool    
##  6 Deathstroke 
##  7 Etrigan     
##  8 Galactus    
##  9 Gladiator   
## 10 Indigo      
## # … with 14 more rows
```

## `superhero_info`
3. Let's say we are only interested in the variables name, alignment, and "race". How would you isolate these variables from `superhero_info`?

```r
select(superhero_info,'Name','Alignment','Race')
```

```
## # A tibble: 734 × 3
##    Name          Alignment Race             
##    <chr>         <chr>     <chr>            
##  1 A-Bomb        good      Human            
##  2 Abe Sapien    good      Icthyo Sapien    
##  3 Abin Sur      good      Ungaran          
##  4 Abomination   bad       Human / Radiation
##  5 Abraxas       bad       Cosmic Entity    
##  6 Absorbing Man bad       Human            
##  7 Adam Monroe   good      <NA>             
##  8 Adam Strange  good      Human            
##  9 Agent 13      good      <NA>             
## 10 Agent Bob     good      Human            
## # … with 724 more rows
```

## Not Human
4. List all of the superheros that are not human.

```r
filter(superhero_info,Race!='Human')
```

```
## # A tibble: 222 × 10
##    Name    Gender `Eye color` Race   `Hair color` Height Publisher  `Skin color`
##    <chr>   <chr>  <chr>       <chr>  <chr>         <dbl> <chr>      <chr>       
##  1 Abe Sa… Male   blue        Icthy… No Hair         191 Dark Hors… blue        
##  2 Abin S… Male   blue        Ungar… No Hair         185 DC Comics  red         
##  3 Abomin… Male   green       Human… No Hair         203 Marvel Co… <NA>        
##  4 Abraxas Male   blue        Cosmi… Black            NA Marvel Co… <NA>        
##  5 Ajax    Male   brown       Cyborg Black           193 Marvel Co… <NA>        
##  6 Alien   Male   <NA>        Xenom… No Hair         244 Dark Hors… black       
##  7 Amazo   Male   red         Andro… <NA>            257 DC Comics  <NA>        
##  8 Angel   Male   <NA>        Vampi… <NA>             NA Dark Hors… <NA>        
##  9 Angel … Female yellow      Mutant Black           165 Marvel Co… <NA>        
## 10 Anti-M… Male   yellow      God /… No Hair          61 DC Comics  <NA>        
## # … with 212 more rows, and 2 more variables: Alignment <chr>, Weight <dbl>
```
…
10. Let's explore who the really "big" superheros are. In the `superhero_info` data, which have a height over 200 or weight greater than or equal to 450?

```r
filter(superhero_info, Height > 200 | Weight >= 450)
```

```
## # A tibble: 60 × 10
##    Name    Gender `Eye color` Race   `Hair color` Height Publisher  `Skin color`
##    <chr>   <chr>  <chr>       <chr>  <chr>         <dbl> <chr>      <chr>       
##  1 A-Bomb  Male   yellow      Human  No Hair         203 Marvel Co… <NA>        
##  2 Abomin… Male   green       Human… No Hair         203 Marvel Co… <NA>        
##  3 Alien   Male   <NA>        Xenom… No Hair         244 Dark Hors… black       
##  4 Amazo   Male   red         Andro… <NA>            257 DC Comics  <NA>        
##  5 Ant-Man Male   blue        Human  Blond           211 Marvel Co… <NA>        
##  6 Anti-V… Male   blue        Symbi… Blond           229 Marvel Co… <NA>        
##  7 Apocal… Male   red         Mutant Black           213 Marvel Co… grey        
##  8 Bane    Male   <NA>        Human  <NA>            203 DC Comics  <NA>        
##  9 Beta R… Male   <NA>        <NA>   No Hair         201 Marvel Co… <NA>        
## 10 Blooda… Female blue        Human  Brown           218 Marvel Co… <NA>        
## # … with 50 more rows, and 2 more variables: Alignment <chr>, Weight <dbl>
```
…
14. How many superheros have a combination of accelerated healing, durability, and super strength?

```r
superhero_powers %>%
  select(hero_names,durability,accelerated_healing,super_strength)%>%
  filter(durability=="TRUE")%>%
  filter(accelerated_healing=="TRUE")%>%
  filter(super_strength=="TRUE")
```

```
## # A tibble: 97 × 4
##    hero_names   durability accelerated_healing super_strength
##    <chr>        <lgl>      <lgl>               <lgl>         
##  1 A-Bomb       TRUE       TRUE                TRUE          
##  2 Abe Sapien   TRUE       TRUE                TRUE          
##  3 Angel        TRUE       TRUE                TRUE          
##  4 Anti-Monitor TRUE       TRUE                TRUE          
##  5 Anti-Venom   TRUE       TRUE                TRUE          
##  6 Aquaman      TRUE       TRUE                TRUE          
##  7 Arachne      TRUE       TRUE                TRUE          
##  8 Archangel    TRUE       TRUE                TRUE          
##  9 Ardina       TRUE       TRUE                TRUE          
## 10 Ares         TRUE       TRUE                TRUE          
## # … with 87 more rows
```
…
