…
```
## ── Column specification ────────────────────────────────────────────────────────
## Delimiter: ","
## chr  (1): species
## dbl (10): body weight in kg, brain weight in g, slow wave ("nondreaming") sl...
```

```
## 
## ℹ Use `spec()` to retrieve the full column specification for this data.
## ℹ Specify the column types or set `show_col_types = FALSE` to quiet this message.
```

```
## # A tibble: 62 × 11
##    species  `body weight in … `brain weight i… `slow wave ("no… `paradoxical ("…
##    <chr>                <dbl>            <dbl>            <dbl>            <dbl>
##  1 African…          6654               5712             -999             -999  
##  2 African…             1                  6.6              6.3              2  
##  3 Arctic …             3.38              44.5           -999             -999  
##  4 Arctic …             0.92               5.7           -999             -999  
##  5 Asian e…          2547               4603                2.1              1.8
##  6 Baboon              10.6              180.               9.1              0.7
##  7 Big bro…             0.023              0.3             15.8              3.9
##  8 Brazili…           160                169                5.2              1  
##  9 Cat                  3.3               25.6             10.9              3.6
## 10 Chimpan…            52.2              440                8.3              1.4
## # … with 52 more rows, and 6 more variables:
## #   total sleep (hrs/day)  (sum of slow wave and paradoxical sleep) <dbl>,
## #   maximum life span (years) <dbl>, gestation time (days) <dbl>,
## #   predation index (1-5) <dbl>, sleep exposure index (1-5) <dbl>,
## #   overall danger index (1-5) <dbl>
```
…
